module gitlab.com/tariandev_intelops/new/sample

go 1.20

require (
	github.com/AlekSi/pointer v1.2.0
	github.com/cerbos/cerbos v0.30.0
	github.com/google/uuid v1.3.1
	github.com/intelops/go-common v1.0.19
	github.com/kelseyhightower/envconfig v1.4.0
	github.com/ory/client-go v1.2.8
	github.com/pkg/errors v0.9.1
	google.golang.org/grpc v1.58.1
	gopkg.in/yaml.v2 v2.4.0
	gorm.io/gorm v1.25.4
)

require (
	github.com/Masterminds/goutils v1.1.1 // indirect
	github.com/Masterminds/semver/v3 v3.2.1 // indirect
	github.com/Masterminds/sprig/v3 v3.2.3 // indirect
	github.com/bluele/gcache v0.0.2 // indirect
	github.com/cenkalti/backoff/v3 v3.0.0 // indirect
	github.com/cenkalti/backoff/v4 v4.2.1 // indirect
	github.com/cerbos/cloud-api v0.1.7 // indirect
	github.com/cespare/xxhash/v2 v2.2.0 // indirect
	github.com/davecgh/go-spew v1.1.1 // indirect
	github.com/decred/dcrd/dcrec/secp256k1/v4 v4.2.0 // indirect
	github.com/envoyproxy/protoc-gen-validate v1.0.2 // indirect
	github.com/felixge/httpsnoop v1.0.3 // indirect
	github.com/ghodss/yaml v1.0.0 // indirect
	github.com/go-jose/go-jose/v3 v3.0.0 // indirect
	github.com/go-logr/logr v1.2.4 // indirect
	github.com/go-logr/stdr v1.2.2 // indirect
	github.com/gobwas/glob v0.2.3 // indirect
	github.com/goccy/go-json v0.10.2 // indirect
	github.com/golang/groupcache v0.0.0-20210331224755-41bb18bfe9da // indirect
	github.com/golang/protobuf v1.5.3 // indirect
	github.com/google/go-cmp v0.5.9 // indirect
	github.com/grpc-ecosystem/go-grpc-middleware/v2 v2.0.0 // indirect
	github.com/grpc-ecosystem/grpc-gateway/v2 v2.18.0 // indirect
	github.com/hashicorp/errwrap v1.1.0 // indirect
	github.com/hashicorp/go-cleanhttp v0.5.2 // indirect
	github.com/hashicorp/go-multierror v1.1.1 // indirect
	github.com/hashicorp/go-retryablehttp v0.7.4 // indirect
	github.com/hashicorp/go-rootcerts v1.0.2 // indirect
	github.com/hashicorp/go-secure-stdlib/parseutil v0.1.6 // indirect
	github.com/hashicorp/go-secure-stdlib/strutil v0.1.2 // indirect
	github.com/hashicorp/go-sockaddr v1.0.2 // indirect
	github.com/hashicorp/hcl v1.0.0 // indirect
	github.com/hashicorp/vault/api v1.9.2 // indirect
	github.com/hashicorp/vault/api/auth/kubernetes v0.4.1 // indirect
	github.com/huandu/xstrings v1.4.0 // indirect
	github.com/imdario/mergo v0.3.15 // indirect
	github.com/jdxcode/netrc v1.0.0 // indirect
	github.com/jinzhu/inflection v1.0.0 // indirect
	github.com/jinzhu/now v1.1.5 // indirect
	github.com/lestrrat-go/blackmagic v1.0.1 // indirect
	github.com/lestrrat-go/httpcc v1.0.1 // indirect
	github.com/lestrrat-go/httprc v1.0.4 // indirect
	github.com/lestrrat-go/iter v1.0.2 // indirect
	github.com/lestrrat-go/jwx/v2 v2.0.12 // indirect
	github.com/lestrrat-go/option v1.0.1 // indirect
	github.com/mattn/go-isatty v0.0.19 // indirect
	github.com/mitchellh/copystructure v1.2.0 // indirect
	github.com/mitchellh/go-homedir v1.1.0 // indirect
	github.com/mitchellh/mapstructure v1.5.0 // indirect
	github.com/mitchellh/reflectwalk v1.0.2 // indirect
	github.com/nlepage/go-tarfs v1.2.1 // indirect
	github.com/pmezard/go-difflib v1.0.0 // indirect
	github.com/rogpeppe/go-internal v1.11.0 // indirect
	github.com/ryanuber/go-glob v1.0.0 // indirect
	github.com/santhosh-tekuri/jsonschema/v5 v5.3.1 // indirect
	github.com/segmentio/asm v1.2.0 // indirect
	github.com/shopspring/decimal v1.3.1 // indirect
	github.com/showa-93/go-mask v0.6.0 // indirect
	github.com/sirupsen/logrus v1.9.3 // indirect
	github.com/spf13/cast v1.5.0 // indirect
	github.com/stretchr/testify v1.8.4 // indirect
	github.com/tidwall/gjson v1.16.0 // indirect
	github.com/tidwall/match v1.1.1 // indirect
	github.com/tidwall/pretty v1.2.1 // indirect
	go.elastic.co/ecszap v1.0.2 // indirect
	go.opencensus.io v0.24.0 // indirect
	go.opentelemetry.io/contrib/instrumentation/net/http/otelhttp v0.43.0 // indirect
	go.opentelemetry.io/contrib/propagators/autoprop v0.43.0 // indirect
	go.opentelemetry.io/contrib/propagators/aws v1.18.0 // indirect
	go.opentelemetry.io/contrib/propagators/b3 v1.18.0 // indirect
	go.opentelemetry.io/contrib/propagators/jaeger v1.18.0 // indirect
	go.opentelemetry.io/contrib/propagators/ot v1.18.0 // indirect
	go.opentelemetry.io/otel v1.17.0 // indirect
	go.opentelemetry.io/otel/bridge/opencensus v0.40.0 // indirect
	go.opentelemetry.io/otel/exporters/jaeger v1.17.0 // indirect
	go.opentelemetry.io/otel/exporters/otlp/otlptrace v1.17.0 // indirect
	go.opentelemetry.io/otel/exporters/otlp/otlptrace/otlptracegrpc v1.17.0 // indirect
	go.opentelemetry.io/otel/metric v1.17.0 // indirect
	go.opentelemetry.io/otel/sdk v1.17.0 // indirect
	go.opentelemetry.io/otel/sdk/metric v0.40.0 // indirect
	go.opentelemetry.io/otel/trace v1.17.0 // indirect
	go.opentelemetry.io/proto/otlp v1.0.0 // indirect
	go.uber.org/config v1.4.0 // indirect
	go.uber.org/multierr v1.11.0 // indirect
	go.uber.org/zap v1.25.0 // indirect
	golang.org/x/crypto v0.13.0 // indirect
	golang.org/x/lint v0.0.0-20210508222113-6edffad5e616 // indirect
	golang.org/x/net v0.15.0 // indirect
	golang.org/x/oauth2 v0.12.0 // indirect
	golang.org/x/sync v0.3.0 // indirect
	golang.org/x/sys v0.12.0 // indirect
	golang.org/x/text v0.13.0 // indirect
	golang.org/x/time v0.0.0-20220210224613-90d013bbcef8 // indirect
	golang.org/x/tools v0.13.0 // indirect
	google.golang.org/appengine v1.6.7 // indirect
	google.golang.org/genproto v0.0.0-20230803162519-f966b187b2e5 // indirect
	google.golang.org/genproto/googleapis/api v0.0.0-20230822172742-b8732ec3820d // indirect
	google.golang.org/genproto/googleapis/rpc v0.0.0-20230822172742-b8732ec3820d // indirect
	google.golang.org/protobuf v1.31.0 // indirect
	gopkg.in/yaml.v3 v3.0.1 // indirect
)
